﻿,Population,Percent
Total Population,"29,787",100%
Population with Disabilities,"3,615",12.14%
Population Living below Poverty Line,"3,192",10.72%
Veteran Population,"1,960",6.58%
Minority Population: Black of African American,318,1.07%
Minority Population: Hispanic,"1,135",3.81%
