﻿,Youth (0-17),Adults (18-64),Older Adults (65+)
Age Distribution,22.88%,57.17%,19.94%
Population with Disabilities by Age,4.03%,10.09%,27.28%
Population Below Poverty Level by Age,15.45%,10.35%,6.33%
