﻿Greatest Barrier to Mobility,Responses
Lack of information about transportation options.,35
Lack of information about how to use the available services.,23
Advance notice needed to request a ride.,17
Hours of operation.,24
Other,19
